[gd_scene load_steps=5 format=2]

[ext_resource path="res://Assets/Sprites/Power-Ups/Ammo.png" type="Texture" id=1]
[ext_resource path="res://Scenes/Entities/Powerup/Powerup.gd" type="Script" id=2]

[sub_resource type="CircleShape2D" id=1]
radius = 19.1009

[sub_resource type="Animation" id=2]
resource_name = "almost_despawned"
tracks/0/type = "value"
tracks/0/path = NodePath("Sprite:visible")
tracks/0/interp = 1
tracks/0/loop_wrap = true
tracks/0/imported = false
tracks/0/enabled = true
tracks/0/keys = {
"times": PoolRealArray( 0, 0.5, 1 ),
"transitions": PoolRealArray( 1, 1, 1 ),
"update": 1,
"values": [ true, false, true ]
}

[node name="Powerup" type="Area2D"]
script = ExtResource( 2 )

[node name="Sprite" type="Sprite" parent="."]
texture = ExtResource( 1 )

[node name="CollisionShape2D" type="CollisionShape2D" parent="."]
position = Vector2( -0.230839, -0.538618 )
shape = SubResource( 1 )

[node name="DespawnTimer" type="Timer" parent="."]
wait_time = 10.0

[node name="AnimationPlayer" type="AnimationPlayer" parent="."]
anims/almost_despawned = SubResource( 2 )
[connection signal="body_entered" from="." to="." method="_on_Powerup_body_entered"]
[connection signal="timeout" from="DespawnTimer" to="." method="_on_DespawnTimer_timeout"]
