[gd_resource type="DynamicFont" load_steps=2 format=2]

[ext_resource path="res://Assets/Fonts/Alegreya Sans SC/AlegreyaSansSC-Medium.ttf" type="DynamicFontData" id=1]

[resource]
size = 25
outline_size = 1
outline_color = Color( 0, 0, 0, 1 )
font_data = ExtResource( 1 )
