[gd_scene load_steps=33 format=2]

[ext_resource path="res://Scenes/Menus/MainMenu/MainMenu.gd" type="Script" id=1]
[ext_resource path="res://Assets/Sprites/Power-Ups/Mask.png" type="Texture" id=2]
[ext_resource path="res://Assets/Tileset/TileMap.res" type="TileSet" id=3]
[ext_resource path="res://Assets/Fonts/text.tres" type="DynamicFont" id=4]
[ext_resource path="res://Assets/Fonts/Alegreya Sans SC/AlegreyaSansSC-Medium.ttf" type="DynamicFontData" id=5]
[ext_resource path="res://Assets/Background/door.png" type="Texture" id=6]
[ext_resource path="res://Assets/Sprites/Explosion/exp2_0.png" type="Texture" id=7]
[ext_resource path="res://Assets/Sprites/Icons/GitLabIcon.png" type="Texture" id=9]
[ext_resource path="res://Assets/Sprites/Icons/Full-Screen-256.png" type="Texture" id=10]
[ext_resource path="res://Assets/Sprites/Icons/volume.png" type="Texture" id=11]
[ext_resource path="res://Assets/Sprites/Bullets/vaccine.png" type="Texture" id=12]
[ext_resource path="res://Assets/Sprites/Power-Ups/CureGranade.png" type="Texture" id=13]
[ext_resource path="res://Assets/Sprites/Bullets/virus.png" type="Texture" id=14]
[ext_resource path="res://Assets/Sprites/Icons/mute.png" type="Texture" id=15]

[sub_resource type="DynamicFont" id=1]
outline_size = 1
outline_color = Color( 0, 0, 0, 1 )
font_data = ExtResource( 5 )

[sub_resource type="AtlasTexture" id=2]
atlas = ExtResource( 7 )
region = Rect2( 192, 192, 64, 64 )

[sub_resource type="AtlasTexture" id=3]
atlas = ExtResource( 7 )
region = Rect2( 128, 192, 64, 64 )

[sub_resource type="AtlasTexture" id=4]
atlas = ExtResource( 7 )
region = Rect2( 64, 192, 64, 64 )

[sub_resource type="AtlasTexture" id=5]
atlas = ExtResource( 7 )
region = Rect2( 0, 192, 64, 64 )

[sub_resource type="AtlasTexture" id=6]
atlas = ExtResource( 7 )
region = Rect2( 192, 128, 64, 64 )

[sub_resource type="AtlasTexture" id=7]
atlas = ExtResource( 7 )
region = Rect2( 128, 128, 64, 64 )

[sub_resource type="AtlasTexture" id=8]
atlas = ExtResource( 7 )
region = Rect2( 64, 128, 64, 64 )

[sub_resource type="AtlasTexture" id=9]
atlas = ExtResource( 7 )
region = Rect2( 0, 128, 64, 64 )

[sub_resource type="AtlasTexture" id=10]
atlas = ExtResource( 7 )
region = Rect2( 192, 64, 64, 64 )

[sub_resource type="AtlasTexture" id=11]
atlas = ExtResource( 7 )
region = Rect2( 128, 64, 64, 64 )

[sub_resource type="AtlasTexture" id=12]
atlas = ExtResource( 7 )
region = Rect2( 64, 64, 64, 64 )

[sub_resource type="AtlasTexture" id=13]
atlas = ExtResource( 7 )
region = Rect2( 0, 64, 64, 64 )

[sub_resource type="AtlasTexture" id=14]
atlas = ExtResource( 7 )
region = Rect2( 192, 0, 64, 64 )

[sub_resource type="AtlasTexture" id=15]
atlas = ExtResource( 7 )
region = Rect2( 128, 0, 64, 64 )

[sub_resource type="AtlasTexture" id=16]
atlas = ExtResource( 7 )
region = Rect2( 64, 0, 64, 64 )

[sub_resource type="AtlasTexture" id=17]
atlas = ExtResource( 7 )
region = Rect2( 0, 0, 64, 64 )

[sub_resource type="SpriteFrames" id=18]
animations = [ {
"frames": [ SubResource( 2 ), SubResource( 3 ), SubResource( 4 ), SubResource( 5 ), SubResource( 6 ), SubResource( 7 ), SubResource( 8 ), SubResource( 9 ), SubResource( 10 ), SubResource( 11 ), SubResource( 12 ), SubResource( 13 ), SubResource( 14 ), SubResource( 15 ), SubResource( 16 ), SubResource( 17 ), SubResource( 16 ), SubResource( 15 ), SubResource( 14 ), SubResource( 13 ), SubResource( 12 ), SubResource( 11 ) ],
"loop": false,
"name": "explosion",
"speed": 5.0
} ]

[node name="MainMenu" type="Control"]
anchor_right = 1.0
anchor_bottom = 1.0
script = ExtResource( 1 )
__meta__ = {
"_edit_use_anchors_": false
}

[node name="TileMap" type="TileMap" parent="."]
scale = Vector2( 2, 2 )
tile_set = ExtResource( 3 )
cell_size = Vector2( 16, 16 )
format = 1
tile_data = PoolIntArray( 0, 5, 0, 1, 2, 0, 2, 2, 0, 3, 2, 0, 4, 2, 0, 5, 2, 0, 6, 2, 0, 7, 2, 0, 8, 2, 0, 9, 2, 0, 10, 2, 0, 11, 3, 0, 12, 0, 0, 13, 0, 0, 14, 1, 0, 15, 2, 0, 16, 2, 0, 17, 2, 0, 18, 2, 0, 19, 2, 0, 20, 2, 0, 21, 2, 0, 22, 2, 0, 23, 2, 0, 24, 2, 0, 25, 2, 0, 26, 5, 0, 65536, 6, 0, 65537, 0, 0, 65538, 0, 0, 65539, 0, 0, 65540, 0, 0, 65541, 0, 0, 65542, 0, 0, 65543, 0, 0, 65544, 0, 0, 65545, 0, 0, 65546, 0, 0, 65547, 0, 0, 65548, 0, 0, 65549, 0, 0, 65550, 0, 0, 65551, 0, 0, 65552, 0, 0, 65553, 0, 0, 65554, 0, 0, 65555, 0, 0, 65556, 0, 0, 65557, 0, 0, 65558, 0, 0, 65559, 0, 0, 65560, 0, 0, 65561, 0, 0, 65562, 4, 0, 131072, 6, 0, 131073, 0, 0, 131074, 0, 0, 131075, 0, 0, 131076, 0, 0, 131077, 0, 0, 131078, 0, 0, 131079, 0, 0, 131080, 0, 0, 131081, 0, 0, 131082, 0, 0, 131083, 0, 0, 131084, 0, 0, 131085, 0, 0, 131086, 0, 0, 131087, 0, 0, 131088, 0, 0, 131089, 0, 0, 131090, 0, 0, 131091, 0, 0, 131092, 0, 0, 131093, 0, 0, 131094, 0, 0, 131095, 0, 0, 131096, 0, 0, 131097, 0, 0, 131098, 4, 0, 196608, 6, 0, 196609, 0, 0, 196610, 0, 0, 196611, 0, 0, 196612, 0, 0, 196613, 0, 0, 196614, 0, 0, 196615, 0, 0, 196616, 0, 0, 196617, 0, 0, 196618, 0, 0, 196619, 0, 0, 196620, 0, 0, 196621, 0, 0, 196622, 0, 0, 196623, 0, 0, 196624, 0, 0, 196625, 0, 0, 196626, 0, 0, 196627, 0, 0, 196628, 0, 0, 196629, 0, 0, 196630, 0, 0, 196631, 0, 0, 196632, 0, 0, 196633, 0, 0, 196634, 4, 0, 262144, 6, 0, 262145, 0, 0, 262146, 0, 0, 262147, 0, 0, 262148, 0, 0, 262149, 0, 0, 262150, 0, 0, 262151, 0, 0, 262152, 0, 0, 262153, 0, 0, 262154, 0, 0, 262155, 0, 0, 262156, 0, 0, 262157, 0, 0, 262158, 0, 0, 262159, 0, 0, 262160, 0, 0, 262161, 0, 0, 262162, 0, 0, 262163, 0, 0, 262164, 0, 0, 262165, 0, 0, 262166, 0, 0, 262167, 0, 0, 262168, 0, 0, 262169, 0, 0, 262170, 4, 0, 327680, 3, 0, 327681, 0, 0, 327682, 0, 0, 327683, 0, 0, 327684, 0, 0, 327685, 0, 0, 327686, 0, 0, 327687, 0, 0, 327688, 0, 0, 327689, 0, 0, 327690, 0, 0, 327691, 0, 0, 327692, 0, 0, 327693, 0, 0, 327694, 0, 0, 327695, 0, 0, 327696, 0, 0, 327697, 0, 0, 327698, 0, 0, 327699, 0, 0, 327700, 0, 0, 327701, 0, 0, 327702, 0, 0, 327703, 0, 0, 327704, 0, 0, 327705, 0, 0, 327706, 1, 0, 393216, 0, 0, 393217, 0, 0, 393218, 0, 0, 393219, 0, 0, 393220, 0, 0, 393221, 0, 0, 393222, 0, 0, 393223, 0, 0, 393224, 0, 0, 393225, 0, 0, 393226, 0, 0, 393227, 0, 0, 393228, 0, 0, 393229, 0, 0, 393230, 0, 0, 393231, 0, 0, 393232, 0, 0, 393233, 0, 0, 393234, 0, 0, 393235, 0, 0, 393236, 0, 0, 393237, 0, 0, 393238, 0, 0, 393239, 0, 0, 393240, 0, 0, 393241, 0, 0, 393242, 0, 0, 458752, 0, 0, 458753, 0, 0, 458754, 0, 0, 458755, 0, 0, 458756, 0, 0, 458757, 0, 0, 458758, 0, 0, 458759, 0, 0, 458760, 0, 0, 458761, 0, 0, 458762, 0, 0, 458763, 0, 0, 458764, 0, 0, 458765, 0, 0, 458766, 0, 0, 458767, 0, 0, 458768, 0, 0, 458769, 0, 0, 458770, 0, 0, 458771, 0, 0, 458772, 0, 0, 458773, 0, 0, 458774, 0, 0, 458775, 0, 0, 458776, 0, 0, 458777, 0, 0, 458778, 0, 0, 524288, 0, 0, 524289, 0, 0, 524290, 0, 0, 524291, 0, 0, 524292, 0, 0, 524293, 0, 0, 524294, 0, 0, 524295, 0, 0, 524296, 0, 0, 524297, 0, 0, 524298, 0, 0, 524299, 0, 0, 524300, 0, 0, 524301, 0, 0, 524302, 0, 0, 524303, 0, 0, 524304, 0, 0, 524305, 0, 0, 524306, 0, 0, 524307, 0, 0, 524308, 0, 0, 524309, 0, 0, 524310, 0, 0, 524311, 0, 0, 524312, 0, 0, 524313, 0, 0, 524314, 0, 0, 589824, 9, 0, 589825, 0, 0, 589826, 1610612736, 0, 589827, 0, 0, 589828, 0, 0, 589829, 0, 0, 589830, 0, 0, 589831, 0, 0, 589832, 0, 0, 589833, 0, 0, 589834, 0, 0, 589835, 0, 0, 589836, 0, 0, 589837, 0, 0, 589838, 0, 0, 589839, 0, 0, 589840, 0, 0, 589841, 0, 0, 589842, 0, 0, 589843, 0, 0, 589844, 0, 0, 589845, 0, 0, 589846, 0, 0, 589847, 0, 0, 589848, 0, 0, 589849, 0, 0, 589850, 7, 0, 655360, 6, 0, 655361, 0, 0, 655362, 0, 0, 655363, 0, 0, 655364, 0, 0, 655365, 0, 0, 655366, 0, 0, 655367, 0, 0, 655368, 0, 0, 655369, 0, 0, 655370, 0, 0, 655371, 0, 0, 655372, 0, 0, 655373, 0, 0, 655374, 0, 0, 655375, 0, 0, 655376, 0, 0, 655377, 0, 0, 655378, 0, 0, 655379, 0, 0, 655380, 0, 0, 655381, 0, 0, 655382, 0, 0, 655383, 0, 0, 655384, 0, 0, 655385, 0, 0, 655386, 4, 0, 720896, 6, 0, 720897, 0, 0, 720898, 0, 0, 720899, 0, 0, 720900, 0, 0, 720901, 0, 0, 720902, 0, 0, 720903, 0, 0, 720904, 0, 0, 720905, 0, 0, 720906, 0, 0, 720907, 0, 0, 720908, 0, 0, 720909, 0, 0, 720910, 0, 0, 720911, 0, 0, 720912, 0, 0, 720913, 0, 0, 720914, 0, 0, 720915, 0, 0, 720916, 0, 0, 720917, 0, 0, 720918, 0, 0, 720919, 0, 0, 720920, 0, 0, 720921, 0, 0, 720922, 4, 0, 786432, 6, 0, 786433, 0, 0, 786434, 0, 0, 786435, 0, 0, 786436, 0, 0, 786437, 0, 0, 786438, 0, 0, 786439, 0, 0, 786440, 0, 0, 786441, 0, 0, 786442, 0, 0, 786443, 0, 0, 786444, 0, 0, 786445, 0, 0, 786446, 0, 0, 786447, 0, 0, 786448, 0, 0, 786449, 0, 0, 786450, 0, 0, 786451, 0, 0, 786452, 0, 0, 786453, 0, 0, 786454, 0, 0, 786455, 0, 0, 786456, 0, 0, 786457, 0, 0, 786458, 4, 0, 851968, 6, 0, 851969, 0, 0, 851970, 0, 0, 851971, 0, 0, 851972, 0, 0, 851973, 0, 0, 851974, 0, 0, 851975, 0, 0, 851976, 0, 0, 851977, 0, 0, 851978, 0, 0, 851979, 0, 0, 851980, 0, 0, 851981, 0, 0, 851982, 0, 0, 851983, 0, 0, 851984, 0, 0, 851985, 0, 0, 851986, 0, 0, 851987, 0, 0, 851988, 0, 0, 851989, 0, 0, 851990, 0, 0, 851991, 0, 0, 851992, 0, 0, 851993, 0, 0, 851994, 4, 0, 917504, 5, 0, 917505, 8, 0, 917506, 8, 0, 917507, 8, 0, 917508, 8, 0, 917509, 8, 0, 917510, 8, 0, 917511, 8, 0, 917512, 8, 0, 917513, 8, 0, 917514, 8, 0, 917515, 9, 0, 917516, 0, 0, 917517, 0, 0, 917518, 7, 0, 917519, 8, 0, 917520, 8, 0, 917521, 8, 0, 917522, 8, 0, 917523, 8, 0, 917524, 8, 0, 917525, 8, 0, 917526, 8, 0, 917527, 8, 0, 917528, 8, 0, 917529, 8, 0, 917530, 5, 0 )
__meta__ = {
"_edit_lock_": true
}

[node name="Title" type="TextureRect" parent="."]
anchor_left = 0.5
anchor_top = 0.5
anchor_right = 0.5
anchor_bottom = 0.5
margin_left = -325.0
margin_top = -257.919
margin_right = 315.0
margin_bottom = 222.081
texture = ExtResource( 6 )
__meta__ = {
"_edit_use_anchors_": false
}

[node name="Commands" type="VBoxContainer" parent="."]
anchor_top = 0.5
anchor_bottom = 0.5
margin_left = 13.0
margin_top = -3.0
margin_right = 180.0
margin_bottom = 157.0
__meta__ = {
"_edit_use_anchors_": false
}

[node name="PlayBtn" type="Button" parent="Commands"]
margin_right = 167.0
margin_bottom = 37.0
custom_fonts/font = ExtResource( 4 )
text = "Play"
icon = ExtResource( 14 )
flat = true
expand_icon = true

[node name="HowToPlayBtn" type="Button" parent="Commands"]
margin_top = 41.0
margin_right = 167.0
margin_bottom = 78.0
custom_fonts/font = ExtResource( 4 )
text = "How to Play"
icon = ExtResource( 12 )
flat = true
expand_icon = true

[node name="CreditsBtn" type="Button" parent="Commands"]
margin_top = 82.0
margin_right = 167.0
margin_bottom = 119.0
custom_fonts/font = ExtResource( 4 )
text = "Credits"
icon = ExtResource( 2 )
flat = true
expand_icon = true

[node name="QuitBtn" type="Button" parent="Commands"]
margin_top = 123.0
margin_right = 167.0
margin_bottom = 160.0
custom_fonts/font = ExtResource( 4 )
text = "Quit"
icon = ExtResource( 13 )
flat = true
expand_icon = true

[node name="Copyright" type="Label" parent="."]
anchor_left = 1.0
anchor_top = 1.0
anchor_right = 1.0
anchor_bottom = 1.0
margin_left = -253.981
margin_top = -69.3171
margin_right = -3.98053
margin_bottom = -3.31708
custom_fonts/font = SubResource( 1 )
text = "© Xecestel 2020
Proudly made with Godot Engine 3
Version: "
align = 2
__meta__ = {
"_edit_use_anchors_": false
}

[node name="Explosion" type="AnimatedSprite" parent="."]
visible = false
position = Vector2( 443.599, 239.221 )
scale = Vector2( 9.92747, 7.45942 )
frames = SubResource( 18 )
animation = "explosion"
speed_scale = 10.0

[node name="GitLabButton" type="TextureButton" parent="."]
anchor_top = 1.0
anchor_bottom = 1.0
margin_top = -32.0
margin_right = 32.0
hint_tooltip = "Check out the Source Code on GitLab!"
texture_normal = ExtResource( 9 )
expand = true
stretch_mode = 4
__meta__ = {
"_edit_use_anchors_": false
}

[node name="FullScreenButton" type="TextureButton" parent="."]
anchor_top = 1.0
anchor_bottom = 1.0
margin_left = 41.6085
margin_top = -32.2774
margin_right = 73.6085
margin_bottom = -0.277405
hint_tooltip = "Fullscreen Mode"
texture_normal = ExtResource( 10 )
expand = true
stretch_mode = 4
__meta__ = {
"_edit_use_anchors_": false
}

[node name="MuteButton" type="TextureButton" parent="."]
anchor_top = 1.0
anchor_bottom = 1.0
margin_left = 85.1587
margin_top = -32.2774
margin_right = 117.159
margin_bottom = -0.277405
hint_tooltip = "Mute game"
toggle_mode = true
texture_normal = ExtResource( 11 )
texture_pressed = ExtResource( 15 )
expand = true
stretch_mode = 4
__meta__ = {
"_edit_use_anchors_": false
}
[connection signal="pressed" from="Commands/PlayBtn" to="." method="_on_PlayBtn_pressed"]
[connection signal="pressed" from="Commands/HowToPlayBtn" to="." method="_on_HowToPlayBtn_pressed"]
[connection signal="pressed" from="Commands/CreditsBtn" to="." method="_on_CreditsBtn_pressed"]
[connection signal="pressed" from="Commands/QuitBtn" to="." method="_on_QuitBtn_pressed"]
[connection signal="animation_finished" from="Explosion" to="." method="_on_Explosion_animation_finished"]
[connection signal="pressed" from="GitLabButton" to="." method="_on_GitLabButton_pressed"]
[connection signal="pressed" from="FullScreenButton" to="." method="_on_FullScreenButton_pressed"]
[connection signal="toggled" from="MuteButton" to="." method="_on_MuteButton_toggled"]
